\BOOKMARK [0][-]{chapter*.2}{Povzetek}{}% 1
\BOOKMARK [0][-]{chapter*.3}{Abstract}{}% 2
\BOOKMARK [0][-]{chapter.1}{Uvod}{}% 3
\BOOKMARK [0][-]{chapter.2}{Vezljivost}{}% 4
\BOOKMARK [1][-]{section.2.1}{Udele\236enske vloge}{chapter.2}% 5
\BOOKMARK [0][-]{chapter.3}{Obstojece re\235itve}{}% 6
\BOOKMARK [1][-]{section.3.1}{PDT-Vallex}{chapter.3}% 7
\BOOKMARK [1][-]{section.3.2}{CROVALLEX}{chapter.3}% 8
\BOOKMARK [0][-]{chapter.4}{Opis re\235itve}{}% 9
\BOOKMARK [1][-]{section.4.1}{Ucni korpus}{chapter.4}% 10
\BOOKMARK [1][-]{section.4.2}{Spletna aplikacija}{chapter.4}% 11
\BOOKMARK [1][-]{section.4.3}{Razdvoumljanje pomenov besed}{chapter.4}% 12
\BOOKMARK [0][-]{chapter.5}{Evalvacija razdvoumljanja}{}% 13
\BOOKMARK [0][-]{chapter.6}{Zakljucek}{}% 14
\BOOKMARK [0][-]{chapter.6}{Literatura}{}% 15
