\relax 
\providecommand\hyper@newdestlabel[2]{}
\catcode `"\active 
\providecommand\HyperFirstAtBeginDocument{\AtBeginDocument}
\HyperFirstAtBeginDocument{\ifx\hyper@anchor\@undefined
\global\let\oldcontentsline\contentsline
\gdef\contentsline#1#2#3#4{\oldcontentsline{#1}{#2}{#3}}
\global\let\oldnewlabel\newlabel
\gdef\newlabel#1#2{\newlabelxx{#1}#2}
\gdef\newlabelxx#1#2#3#4#5#6{\oldnewlabel{#1}{{#2}{#3}}}
\AtEndDocument{\ifx\hyper@anchor\@undefined
\let\contentsline\oldcontentsline
\let\newlabel\oldnewlabel
\fi}
\fi}
\global\let\hyper@last\relax 
\gdef\HyperFirstAtBeginDocument#1{#1}
\providecommand\HyField@AuxAddToFields[1]{}
\providecommand\HyField@AuxAddToCoFields[2]{}
\select@language{english}
\@writefile{toc}{\select@language{english}}
\@writefile{lof}{\select@language{english}}
\@writefile{lot}{\select@language{english}}
\select@language{slovene}
\@writefile{toc}{\select@language{slovene}}
\@writefile{lof}{\select@language{slovene}}
\@writefile{lot}{\select@language{slovene}}
\citation{ssj500k_clarin}
\citation{slownet_fisher}
\citation{sskj_fran}
\@writefile{toc}{\contentsline {chapter}{Povzetek}{}{chapter*.2}}
\citation{ssj500k_clarin}
\citation{slownet_fisher}
\citation{sskj_fran}
\select@language{english}
\@writefile{toc}{\select@language{english}}
\@writefile{lof}{\select@language{english}}
\@writefile{lot}{\select@language{english}}
\@writefile{toc}{\contentsline {chapter}{Abstract}{}{chapter*.3}}
\select@language{slovene}
\@writefile{toc}{\select@language{slovene}}
\@writefile{lof}{\select@language{slovene}}
\@writefile{lot}{\select@language{slovene}}
\citation{ssj500k_clarin}
\@writefile{toc}{\contentsline {chapter}{\numberline {1}Uvod}{1}{chapter.1}}
\@writefile{lof}{\addvspace {10\p@ }}
\@writefile{lot}{\addvspace {10\p@ }}
\citation{sskj_fran}
\citation{slownet_fisher}
\citation{lopatkova2003valency}
\citation{zele_2008_vezljivostni}
\citation{zele_2008_vezljivostni}
\@writefile{toc}{\contentsline {chapter}{\numberline {2}Vezljivost}{3}{chapter.2}}
\@writefile{lof}{\addvspace {10\p@ }}
\@writefile{lot}{\addvspace {10\p@ }}
\@writefile{lot}{\contentsline {table}{\numberline {2.1}{\ignorespaces Okraj\IeC {\v s}ave udele\IeC {\v z}enskih vlog.}}{5}{table.2.1}}
\newlabel{tab:zele_uv}{{2.1}{5}{Okrajšave udeleženskih vlog}{table.2.1}{}}
\@writefile{lot}{\contentsline {table}{\numberline {2.2}{\ignorespaces Operatorji.}}{5}{table.2.2}}
\newlabel{tab:zele_op}{{2.2}{5}{Operatorji}{table.2.2}{}}
\citation{krek_oznacevanje}
\citation{ssj500k_clarin}
\citation{mikulova2006annotation}
\citation{crovallex_website}
\citation{pdt_3_5}
\citation{gantartowards}
\citation{krek_oznacevanje}
\citation{krek_oznacevanje}
\@writefile{toc}{\contentsline {section}{\numberline {2.1}Udele\IeC {\v z}enske vloge}{6}{section.2.1}}
\@writefile{lot}{\contentsline {table}{\numberline {2.3}{\ignorespaces Udele\IeC {\v z}enske vloge, predlagane v \IeC {\v c}lanku \cite  {krek_oznacevanje}. Udele\IeC {\v z}enske vloge so razporejene v skupine: delovalniki, okoli\IeC {\v s}\IeC {\v c}ine in glagolske zveze.}}{7}{table.2.3}}
\newlabel{tab:krek_udel}{{2.3}{7}{Udeleženske vloge, predlagane v članku \cite {krek_oznacevanje}. Udeleženske vloge so razporejene v skupine: delovalniki, okoliščine in glagolske zveze}{table.2.3}{}}
\citation{pdt_3_5}
\@writefile{toc}{\contentsline {chapter}{\numberline {3}Obstoje\IeC {\v c}e re\IeC {\v s}itve}{9}{chapter.3}}
\@writefile{lof}{\addvspace {10\p@ }}
\@writefile{lot}{\addvspace {10\p@ }}
\newlabel{ch:obst_rs}{{3}{9}{Obstoječe rešitve}{chapter.3}{}}
\@writefile{toc}{\contentsline {section}{\numberline {3.1}PDT-Vallex}{9}{section.3.1}}
\citation{hajic2003pdt}
\citation{hajic2003pdt}
\citation{hajic2003pdt}
\newlabel{my:tec}{{3.1}{10}{PDT-Vallex}{section.3.1}{}}
\@writefile{toc}{\contentsline {subsection}{\numberline {3.1.1}Struktura PDT-Vallexa}{10}{subsection.3.1.1}}
\@writefile{toc}{\contentsline {subsection}{\numberline {3.1.2}Valen\IeC {\v c}ni okvir v PDT-Vallexu}{10}{subsection.3.1.2}}
\citation{preradovic2009crovallex}
\citation{schuler2005verbnet}
\citation{moguvs1999hrvatski}
\citation{crovallex_website}
\@writefile{lof}{\contentsline {figure}{\numberline {3.1}{\ignorespaces Vezljivostni vzorci v leksikonu PDT-Vallex 2.0 za besede \textit  {d\begingroup \let \relax \relax \endgroup [Pleaseinsert\PrerenderUnicode{á}intopreamble]t (dati)}, \textit  {dopis (pismo)} in \textit  {pln\begingroup \let \relax \relax \endgroup [Pleaseinsert\PrerenderUnicode{ý}intopreamble] (poln)}.}}{11}{figure.3.1}}
\newlabel{pdt_frame}{{3.1}{11}{Vezljivostni vzorci v leksikonu PDT-Vallex 2.0 za besede \textit {dát (dati)}, \textit {dopis (pismo)} in \textit {plný (poln)}}{figure.3.1}{}}
\@writefile{toc}{\contentsline {section}{\numberline {3.2}CROVALLEX}{11}{section.3.2}}
\@writefile{toc}{\contentsline {subsection}{\numberline {3.2.1}Struktura vnosa v CROVALLEX}{11}{subsection.3.2.1}}
\@writefile{lof}{\contentsline {figure}{\numberline {3.2}{\ignorespaces Vnos izto\IeC {\v c}nice \textit  {napisati} v leksikonu CROVALLEX.}}{12}{figure.3.2}}
\newlabel{img:crovallex_napisati}{{3.2}{12}{Vnos iztočnice \textit {napisati} v leksikonu CROVALLEX}{figure.3.2}{}}
\citation{preradovic2009crovallex}
\citation{ssj500k_clarin}
\citation{ssj500k_clarin}
\citation{jos_website}
\@writefile{toc}{\contentsline {chapter}{\numberline {4}Opis re\IeC {\v s}itve}{15}{chapter.4}}
\@writefile{lof}{\addvspace {10\p@ }}
\@writefile{lot}{\addvspace {10\p@ }}
\citation{krek_oznacevanje}
\citation{ssj500k_clarin}
\citation{tei}
\@writefile{toc}{\contentsline {section}{\numberline {4.1}U\IeC {\v c}ni korpus}{16}{section.4.1}}
\newlabel{sec:corpus}{{4.1}{16}{Učni korpus}{section.4.1}{}}
\@writefile{toc}{\contentsline {section}{\numberline {4.2}Spletna aplikacija}{16}{section.4.2}}
\newlabel{sec:webapp}{{4.2}{16}{Spletna aplikacija}{section.4.2}{}}
\@writefile{lof}{\contentsline {figure}{\numberline {4.1}{\ignorespaces Vezljivostni vzorec glagola napisati.}}{17}{figure.4.1}}
\newlabel{img:app_vez_vz}{{4.1}{17}{Vezljivostni vzorec glagola napisati}{figure.4.1}{}}
\@writefile{toc}{\contentsline {subsection}{\numberline {4.2.1}Uporabni\IeC {\v s}ka izku\IeC {\v s}nja}{17}{subsection.4.2.1}}
\citation{sskj_fran}
\@writefile{lof}{\contentsline {figure}{\numberline {4.2}{\ignorespaces Dodajanje pomenov povedim z glagolom napisati.}}{19}{figure.4.2}}
\newlabel{img:napisati_dodaj_pomen}{{4.2}{19}{Dodajanje pomenov povedim z glagolom napisati}{figure.4.2}{}}
\@writefile{toc}{\contentsline {subsection}{\numberline {4.2.2}Arhitektura spletne aplikacije}{19}{subsection.4.2.2}}
\citation{bird2009natural}
\@writefile{toc}{\contentsline {section}{\numberline {4.3}Razdvoumljanje pomenov besed}{20}{section.4.3}}
\newlabel{sec:wsd}{{4.3}{20}{Razdvoumljanje pomenov besed}{section.4.3}{}}
\citation{lesk1986automatic}
\@writefile{toc}{\contentsline {subsection}{\numberline {4.3.1}Leskov algoritem}{22}{subsection.4.3.1}}
\citation{zouaghi2011word}
\citation{vasilescu2004evaluating}
\newlabel{lst:ol}{{4.1}{23}{Originalni Leskov algoritem (OL)}{lstlisting.4.1}{}}
\@writefile{lol}{\contentsline {lstlisting}{\numberline {4.1}Originalni Leskov algoritem (OL)}{23}{lstlisting.4.1}}
\citation{vasilescu2004evaluating}
\citation{banerjee2002adapted}
\citation{ekedahl2004word}
\citation{miller1995wordnet}
\citation{ramakrishnan2004gloss}
\newlabel{eq:tfidf}{{4.3}{25}{Leskov algoritem}{equation.4.3.3}{}}
\citation{ramakrishnan2004gloss}
\citation{mackay2003information}
\citation{abuaiadah2016using}
\@writefile{toc}{\contentsline {subsection}{\numberline {4.3.2}Algoritem k-voditeljev}{27}{subsection.4.3.2}}
\citation{steinbach2000comparison}
\newlabel{lst:veriga_nadpomenk}{{4.2}{28}{Veriga nadpomenk}{lstlisting.4.2}{}}
\@writefile{lol}{\contentsline {lstlisting}{\numberline {4.2}Veriga nadpomenk}{28}{lstlisting.4.2}}
\newlabel{eq:cosine}{{4.5}{28}{Algoritem k-voditeljev}{equation.4.3.5}{}}
\citation{chaplot2014literature}
\citation{pedersen1997distinguishing}
\newlabel{eq:silh}{{4.6}{29}{Algoritem k-voditeljev}{equation.4.3.6}{}}
\@writefile{toc}{\contentsline {subsection}{\numberline {4.3.3}Druge metode razdvoumljanja}{29}{subsection.4.3.3}}
\citation{veronis2004hyperlex}
\citation{mihalcea2004pagerank}
\citation{miller1995wordnet}
\citation{page1999pagerank}
\citation{popov2018neural}
\citation{mikolov2013efficient}
\citation{johansson2015combining}
\citation{peters2018deep}
\@writefile{lof}{\contentsline {figure}{\numberline {4.3}{\ignorespaces Grafi\IeC {\v c}ni prikaz arhitektur CBOW in Skip-gram.}}{32}{figure.4.3}}
\citation{slownet_fisher}
\citation{schutze2008introduction}
\@writefile{toc}{\contentsline {chapter}{\numberline {5}Evalvacija razdvoumljanja}{33}{chapter.5}}
\@writefile{lof}{\addvspace {10\p@ }}
\@writefile{lot}{\addvspace {10\p@ }}
\newlabel{sec:eval_wsd}{{5}{33}{Evalvacija razdvoumljanja}{chapter.5}{}}
\citation{rand1971objective}
\citation{yeung2001details}
\newlabel{eq:purity}{{5.1}{34}{Evalvacija razdvoumljanja}{equation.5.0.1}{}}
\newlabel{eq:rand}{{5.2}{34}{Evalvacija razdvoumljanja}{equation.5.0.2}{}}
\citation{chaplot2014literature}
\@writefile{lot}{\contentsline {table}{\numberline {5.1}{\ignorespaces Ocene algoritmov za razdvoumljanje}}{35}{table.5.1}}
\newlabel{tab:scores}{{5.1}{35}{Ocene algoritmov za razdvoumljanje}{table.5.1}{}}
\citation{ssj500k_clarin}
\citation{tei}
\citation{slownet_fisher}
\citation{sskj_fran}
\@writefile{toc}{\contentsline {chapter}{\numberline {6}Zaklju\IeC {\v c}ek}{37}{chapter.6}}
\@writefile{lof}{\addvspace {10\p@ }}
\@writefile{lot}{\addvspace {10\p@ }}
\bibstyle{plain}
\bibdata{literatura}
\bibcite{crovallex_website}{1}
\bibcite{jos_website}{2}
\bibcite{sskj_fran}{3}
\bibcite{abuaiadah2016using}{4}
\bibcite{banerjee2002adapted}{5}
\bibcite{bird2009natural}{6}
\bibcite{tei}{7}
\bibcite{chaplot2014literature}{8}
\bibcite{ekedahl2004word}{9}
\@writefile{toc}{\contentsline {chapter}{Literatura}{39}{chapter.6}}
\bibcite{slownet_fisher}{10}
\bibcite{gantartowards}{11}
\bibcite{hajic2003pdt}{12}
\bibcite{pdt_3_5}{13}
\bibcite{johansson2015combining}{14}
\bibcite{ssj500k_clarin}{15}
\bibcite{krek_oznacevanje}{16}
\bibcite{lesk1986automatic}{17}
\bibcite{lopatkova2003valency}{18}
\bibcite{mackay2003information}{19}
\bibcite{mihalcea2004pagerank}{20}
\bibcite{mikolov2013efficient}{21}
\bibcite{mikulova2006annotation}{22}
\bibcite{miller1995wordnet}{23}
\bibcite{moguvs1999hrvatski}{24}
\bibcite{page1999pagerank}{25}
\bibcite{pedersen1997distinguishing}{26}
\bibcite{peters2018deep}{27}
\bibcite{popov2018neural}{28}
\bibcite{preradovic2009crovallex}{29}
\bibcite{ramakrishnan2004gloss}{30}
\bibcite{rand1971objective}{31}
\bibcite{schuler2005verbnet}{32}
\bibcite{schutze2008introduction}{33}
\bibcite{steinbach2000comparison}{34}
\bibcite{vasilescu2004evaluating}{35}
\bibcite{veronis2004hyperlex}{36}
\bibcite{yeung2001details}{37}
\bibcite{zele_2008_vezljivostni}{38}
\bibcite{zouaghi2011word}{39}
