\BOOKMARK [0][-]{chapter*.2}{Povzetek}{}% 1
\BOOKMARK [0][-]{chapter*.3}{Abstract}{}% 2
\BOOKMARK [0][-]{chapter.1}{Uvod}{}% 3
\BOOKMARK [0][-]{chapter.2}{Vezljivost glagolov}{}% 4
\BOOKMARK [0][-]{chapter.3}{Obsojece re\235itve}{}% 5
\BOOKMARK [0][-]{chapter.4}{Opis re\235itve}{}% 6
\BOOKMARK [1][-]{section.4.1}{Uporabljeni korpus}{chapter.4}% 7
\BOOKMARK [1][-]{section.4.2}{Pregled nad korpusom}{chapter.4}% 8
\BOOKMARK [1][-]{section.4.3}{Razdvoumljanje povenov povedi}{chapter.4}% 9
\BOOKMARK [0][-]{chapter.5}{Evaluacija}{}% 10
\BOOKMARK [0][-]{chapter.6}{Zakljucek}{}% 11
\BOOKMARK [0][-]{chapter.6}{Literatura}{}% 12
