\relax 
\providecommand\hyper@newdestlabel[2]{}
\catcode `"\active 
\providecommand\HyperFirstAtBeginDocument{\AtBeginDocument}
\HyperFirstAtBeginDocument{\ifx\hyper@anchor\@undefined
\global\let\oldcontentsline\contentsline
\gdef\contentsline#1#2#3#4{\oldcontentsline{#1}{#2}{#3}}
\global\let\oldnewlabel\newlabel
\gdef\newlabel#1#2{\newlabelxx{#1}#2}
\gdef\newlabelxx#1#2#3#4#5#6{\oldnewlabel{#1}{{#2}{#3}}}
\AtEndDocument{\ifx\hyper@anchor\@undefined
\let\contentsline\oldcontentsline
\let\newlabel\oldnewlabel
\fi}
\fi}
\global\let\hyper@last\relax 
\gdef\HyperFirstAtBeginDocument#1{#1}
\providecommand\HyField@AuxAddToFields[1]{}
\providecommand\HyField@AuxAddToCoFields[2]{}
\select@language{english}
\@writefile{toc}{\select@language{english}}
\@writefile{lof}{\select@language{english}}
\@writefile{lot}{\select@language{english}}
\select@language{slovene}
\@writefile{toc}{\select@language{slovene}}
\@writefile{lof}{\select@language{slovene}}
\@writefile{lot}{\select@language{slovene}}
\@writefile{toc}{\contentsline {chapter}{Povzetek}{}{chapter*.2}}
\select@language{english}
\@writefile{toc}{\select@language{english}}
\@writefile{lof}{\select@language{english}}
\@writefile{lot}{\select@language{english}}
\@writefile{toc}{\contentsline {chapter}{Abstract}{}{chapter*.3}}
\select@language{slovene}
\@writefile{toc}{\select@language{slovene}}
\@writefile{lof}{\select@language{slovene}}
\@writefile{lot}{\select@language{slovene}}
\@writefile{toc}{\contentsline {chapter}{\numberline {1}Uvod}{1}{chapter.1}}
\@writefile{lof}{\addvspace {10\p@ }}
\@writefile{lot}{\addvspace {10\p@ }}
\@writefile{toc}{\contentsline {chapter}{\numberline {2}Vezljivost glagolov}{3}{chapter.2}}
\@writefile{lof}{\addvspace {10\p@ }}
\@writefile{lot}{\addvspace {10\p@ }}
\@writefile{toc}{\contentsline {chapter}{\numberline {3}Obsoje\IeC {\v c}e re\IeC {\v s}itve}{5}{chapter.3}}
\@writefile{lof}{\addvspace {10\p@ }}
\@writefile{lot}{\addvspace {10\p@ }}
\@writefile{toc}{\contentsline {chapter}{\numberline {4}Opis re\IeC {\v s}itve}{7}{chapter.4}}
\@writefile{lof}{\addvspace {10\p@ }}
\@writefile{lot}{\addvspace {10\p@ }}
\@writefile{toc}{\contentsline {section}{\numberline {4.1}Uporabljeni korpus}{7}{section.4.1}}
\@writefile{toc}{\contentsline {section}{\numberline {4.2}Pregled nad korpusom}{7}{section.4.2}}
\@writefile{toc}{\contentsline {subsection}{\numberline {4.2.1}Spletna aplikacija}{7}{subsection.4.2.1}}
\@writefile{toc}{\contentsline {subsection}{\numberline {4.2.2}Arhitektura}{7}{subsection.4.2.2}}
\@writefile{toc}{\contentsline {section}{\numberline {4.3}Razdvoumljanje povenov povedi}{7}{section.4.3}}
\@writefile{toc}{\contentsline {subsection}{\numberline {4.3.1}Lesk}{7}{subsection.4.3.1}}
\@writefile{toc}{\contentsline {subsection}{\numberline {4.3.2}KMeans}{8}{subsection.4.3.2}}
\@writefile{toc}{\contentsline {chapter}{\numberline {5}Evaluacija}{9}{chapter.5}}
\@writefile{lof}{\addvspace {10\p@ }}
\@writefile{lot}{\addvspace {10\p@ }}
\citation{*}
\@writefile{toc}{\contentsline {chapter}{\numberline {6}Zaklju\IeC {\v c}ek}{11}{chapter.6}}
\@writefile{lof}{\addvspace {10\p@ }}
\@writefile{lot}{\addvspace {10\p@ }}
\bibstyle{plain}
\bibdata{literatura}
\bibcite{andersen2012kinect}{1}
\bibcite{diploma}{2}
\bibcite{knuth}{3}
\bibcite{fortnow2009viewpoint}{4}
\bibcite{knuth1983simple}{5}
\bibcite{lamport}{6}
\bibcite{nenajkrajsi}{7}
\bibcite{bib}{8}
\@writefile{toc}{\contentsline {chapter}{Literatura}{13}{chapter.6}}
\bibcite{pdfa}{9}
\bibcite{poglavje_springer}{10}
\bibcite{leonardo}{11}
\bibcite{video}{12}
\bibcite{slovarcek}{13}
