\relax 
\providecommand\hyper@newdestlabel[2]{}
\catcode `"\active 
\providecommand\HyperFirstAtBeginDocument{\AtBeginDocument}
\HyperFirstAtBeginDocument{\ifx\hyper@anchor\@undefined
\global\let\oldcontentsline\contentsline
\gdef\contentsline#1#2#3#4{\oldcontentsline{#1}{#2}{#3}}
\global\let\oldnewlabel\newlabel
\gdef\newlabel#1#2{\newlabelxx{#1}#2}
\gdef\newlabelxx#1#2#3#4#5#6{\oldnewlabel{#1}{{#2}{#3}}}
\AtEndDocument{\ifx\hyper@anchor\@undefined
\let\contentsline\oldcontentsline
\let\newlabel\oldnewlabel
\fi}
\fi}
\global\let\hyper@last\relax 
\gdef\HyperFirstAtBeginDocument#1{#1}
\providecommand\HyField@AuxAddToFields[1]{}
\providecommand\HyField@AuxAddToCoFields[2]{}
\select@language{english}
\@writefile{toc}{\select@language{english}}
\@writefile{lof}{\select@language{english}}
\@writefile{lot}{\select@language{english}}
\select@language{slovene}
\@writefile{toc}{\select@language{slovene}}
\@writefile{lof}{\select@language{slovene}}
\@writefile{lot}{\select@language{slovene}}
\citation{vzele2001vezljivost}
\citation{vzele2001vezljivost}
\@writefile{toc}{\contentsline {chapter}{\numberline {1}Teorija vezljivosti}{}{chapter.1}}
\@writefile{lof}{\addvspace {10\p@ }}
\@writefile{lot}{\addvspace {10\p@ }}
\@writefile{toc}{\contentsline {section}{\numberline {1.1}Vezljivost ali valenca}{}{section.1.1}}
\@writefile{toc}{\contentsline {section}{\numberline {1.2}Udele\IeC {\v z}enske vloge}{}{section.1.2}}
\citation{herbst2007valency}
\citation{sgall1986meaning}
\@writefile{toc}{\contentsline {section}{\numberline {1.3}Vezljivost in NLP}{}{section.1.3}}
\@writefile{toc}{\contentsline {section}{\numberline {1.4}FGD}{}{section.1.4}}
\@writefile{toc}{\contentsline {subsection}{\numberline {1.4.1}Umestitev FGD med lingvisti\IeC {\v c}ne teorije}{}{subsection.1.4.1}}
\citation{lopatkova2007towards}
\@writefile{toc}{\contentsline {subsection}{\numberline {1.4.2}Zna\IeC {\v c}ilnosti FGD}{}{subsection.1.4.2}}
\@writefile{toc}{\contentsline {section}{\numberline {1.5}Valen\IeC {\v c}ni okvir v FGD}{}{section.1.5}}
\@writefile{toc}{\contentsline {subsection}{\numberline {1.5.1}Notranji udele\IeC {\v z}enci in prosti modifikatorji}{}{subsection.1.5.1}}
\citation{hajic2003pdt}
\citation{UFALvalency}
\@writefile{toc}{\contentsline {subsection}{\numberline {1.5.2}Obveznost ali neobveznost udele\IeC {\v z}encev}{}{subsection.1.5.2}}
\@writefile{toc}{\contentsline {subsection}{\numberline {1.5.3}Dodeljevanje vlog v valen\IeC {\v c}nem okvirju}{}{subsection.1.5.3}}
\citation{hajic2003pdt}
\@writefile{toc}{\contentsline {chapter}{\numberline {2}Valen\IeC {\v c}ni leksikoni}{}{chapter.2}}
\@writefile{lof}{\addvspace {10\p@ }}
\@writefile{lot}{\addvspace {10\p@ }}
\@writefile{toc}{\contentsline {section}{\numberline {2.1}PDT-Vallex}{}{section.2.1}}
\citation{hajic2001prague}
\@writefile{toc}{\contentsline {subsection}{\numberline {2.1.1}Valen\IeC {\v c}ni okvir v PDT-Vallex}{}{subsection.2.1.1}}
\@writefile{lof}{\contentsline {figure}{\numberline {2.1}{\ignorespaces Valen\IeC {\v c}ni okvir v PDT-Vallex, za besde \textit  {d\begingroup \let \relax \relax \endgroup [Pleaseinsert\PrerenderUnicode{á}intopreamble]t (dati)}, \textit  {dopis (pismo)} and \textit  {pln\begingroup \let \relax \relax \endgroup [Pleaseinsert\PrerenderUnicode{ý}intopreamble] (poln)}.}}{}{figure.2.1}}
\newlabel{pdt_frame}{{2.1}{}{Valenčni okvir v PDT-Vallex, za besde \textit {dát (dati)}, \textit {dopis (pismo)} and \textit {plný (poln)}}{figure.2.1}{}}
\@writefile{toc}{\contentsline {subsection}{\numberline {2.1.2}Izgradnja PDT-Vallex}{}{subsection.2.1.2}}
\citation{11858/00-097C-0000-0023-4338-F}
\citation{moguvs1999hrvatski}
\@writefile{toc}{\contentsline {section}{\numberline {2.2}CROVALLEX}{}{section.2.2}}
\@writefile{toc}{\contentsline {subsection}{\numberline {2.2.1}Struktura CROVALLEX}{}{subsection.2.2.1}}
\@writefile{toc}{\contentsline {subsection}{\numberline {2.2.2}CROVALLEX: povr\IeC {\v s}inske strukture}{}{subsection.2.2.2}}
\citation{preradovic2009crovallex}
\@writefile{toc}{\contentsline {subsection}{\numberline {2.2.3}CROVALLEX: globoke strukture ali funktorji}{}{subsection.2.2.3}}
\@writefile{lof}{\contentsline {figure}{\numberline {2.2}{\ignorespaces Vnos leme \textit  {napsat} v leksikonu PDT-Vallex.}}{}{figure.2.2}}
\newlabel{PDT-Vallex_napsat}{{2.2}{}{Vnos leme \textit {napsat} v leksikonu PDT-Vallex}{figure.2.2}{}}
\@writefile{lof}{\contentsline {figure}{\numberline {2.3}{\ignorespaces Vnos leme \textit  {napisati} v leksikonu CROVALLEX.}}{}{figure.2.3}}
\newlabel{crovallex_napisati}{{2.3}{}{Vnos leme \textit {napisati} v leksikonu CROVALLEX}{figure.2.3}{}}
\citation{arhar2007fidaplus}
\@writefile{toc}{\contentsline {chapter}{\numberline {3}Slovenski korpusi}{}{chapter.3}}
\@writefile{lof}{\addvspace {10\p@ }}
\@writefile{lot}{\addvspace {10\p@ }}
\@writefile{toc}{\contentsline {section}{\numberline {3.1}Korpusa FIDA in FidaPLUS}{}{section.3.1}}
\@writefile{toc}{\contentsline {section}{\numberline {3.2}Jezikoslovno ozna\IeC {\v c}evanje slovenskega jezika - JOS}{}{section.3.2}}
\@writefile{toc}{\contentsline {subsection}{\numberline {3.2.1}Korpusa jos100k in jos1M}{}{subsection.3.2.1}}
\@writefile{toc}{\contentsline {subsection}{\numberline {3.2.2}Oblikoskladenjske specifikacije JOS}{}{subsection.3.2.2}}
\@writefile{toc}{\contentsline {section}{\numberline {3.3}Sporazumevanje v Slovenskem Jeziku - SSJ}{}{section.3.3}}
\@writefile{toc}{\contentsline {subsection}{\numberline {3.3.1}Korpus Gigafida}{}{subsection.3.3.1}}
\@writefile{lot}{\contentsline {table}{\numberline {3.1}{\ignorespaces Tabela atributov in vrednosti za glagol.}}{}{table.3.1}}
\newlabel{tbl:glagol}{{3.1}{}{Tabela atributov in vrednosti za glagol}{table.3.1}{}}
\@writefile{toc}{\contentsline {subsection}{\numberline {3.3.2}Korpus Kres}{}{subsection.3.3.2}}
\@writefile{toc}{\contentsline {subsection}{\numberline {3.3.3}Zbirka GOS}{}{subsection.3.3.3}}
\citation{erjavec2008oblikoskladenjske}
\citation{erjavec2012referenvcni}
\citation{dobrovoljc2017universal}
\@writefile{toc}{\contentsline {subsection}{\numberline {3.3.4}Korpus \IeC {\v S}olar}{}{subsection.3.3.4}}
\@writefile{toc}{\contentsline {subsection}{\numberline {3.3.5}Korpus Lektor}{}{subsection.3.3.5}}
\@writefile{toc}{\contentsline {subsection}{\numberline {3.3.6}ccGigafida in ccKres}{}{subsection.3.3.6}}
\@writefile{toc}{\contentsline {section}{\numberline {3.4}korpus ssj200k}{}{section.3.4}}
\bibstyle{plain}
\bibdata{rawliter}
\bibcite{UFALvalency}{1}
\bibcite{arhar2007fidaplus}{2}
\bibcite{dobrovoljc2017universal}{3}
\bibcite{erjavec2008oblikoskladenjske}{4}
\bibcite{erjavec2012referenvcni}{5}
\bibcite{hajic2003pdt}{6}
\bibcite{hajic2001prague}{7}
\bibcite{herbst2007valency}{8}
\bibcite{lopatkova2007towards}{9}
\@writefile{toc}{\contentsline {chapter}{Literatura}{}{section.3.4}}
\bibcite{moguvs1999hrvatski}{10}
\bibcite{preradovic2009crovallex}{11}
\bibcite{sgall1986meaning}{12}
\bibcite{11858/00-097C-0000-0023-4338-F}{13}
\bibcite{vzele2001vezljivost}{14}
